management.sch: Management schedules - SB_LS1
    MGT_NAME    NUMB_OPS   NUMB_AUTO OP_TYPE       MONTH         DAY     HU_SCH COND OP_DATA1 OP_DATA2 OP_OVERRIDE
      frsd_gr         1           0
                                        graz           5           1      0.000 null    fr_gr     null       0.000
      frsd_congr      1           0  
                                        graz           5           1      0.000 null fr_congr     null       0.000
      c-o-p          17           0
                                        till           5           1      0.000 null mldboard     null       0.000
                                        fert           5          10      0.000 null man_dairy    null       0.000
                                        plnt           5          20      0.000 null     corn     null       0.000
                                        harv          11           1      0.000 null    grain     agrl       0.000
                                        kill          11           1      0.000 null     corn     null       0.000
                                        skip           0           0      0.000 null     null     null       0.000
                                        till           4          15      0.000 null mldboard     null       0.000
                                        plnt           5          20      0.000 null     oats     null       0.000
                                        harv          11           1      0.000 null    grain     agrl       0.000
                                        kill          11           1      0.000 null     oats     null       0.000
                                        skip           0           0      0.000 null     null     null       0.000
                                        till           4           1      0.000 null mldboard     null       0.000
                                        plnt           4          10      0.000 null     wpas     null       0.000
                                        harv           6          15      0.000 null hay_cut_low  agrl       0.000
                                        harv           8          15      0.000 null hay_cut_low  agrl       0.000
                                        kill          11           1      0.000 null     wpas     null       0.000
                                        skip           0           0      0.000 null     null     null       0.000
      o-p-c          17           0
                                        till           4          15      0.000 null mldboard     null       0.000
                                        plnt           5          20      0.000 null     oats     null       0.000
                                        harv          11           1      0.000 null    grain     agrl       0.000
                                        kill          11           1      0.000 null     oats     null       0.000
                                        skip           0           0      0.000 null     null     null       0.000
                                        till           4           1      0.000 null mldboard     null       0.000
                                        plnt           4          10      0.000 null     wpas     null       0.000
                                        harv           6          15      0.000 null hay_cut_low  agrl       0.000
                                        harv           8          15      0.000 null hay_cut_low  agrl       0.000
                                        kill          11           1      0.000 null     wpas     null       0.000
                                        skip           0           0      0.000 null     null     null       0.000
                                        till           5           1      0.000 null mldboard     null       0.000
                                        fert           5          10      0.000 null man_dairy    null       0.000
                                        plnt           5          20      0.000 null     corn     null       0.000
                                        harv          11           1      0.000 null    grain     agrl       0.000
                                        kill          11           1      0.000 null     corn     null       0.000
                                        skip           0           0      0.000 null     null     null       0.000
      p-o-c          17           0
                                        till           4           1      0.000 null mldboard     null       0.000
                                        plnt           4          10      0.000 null     wpas     null       0.000
                                        harv           6          15      0.000 null hay_cut_low  agrl       0.000
                                        harv           8          15      0.000 null hay_cut_low  agrl       0.000
                                        kill          11           1      0.000 null     wpas     null       0.000
                                        skip           0           0      0.000 null     null     null       0.000
                                        till           5           1      0.000 null mldboard     null       0.000
                                        fert           5          10      0.000 null man_dairy    null       0.000
                                        plnt           5          20      0.000 null     corn     null       0.000
                                        harv          11           1      0.000 null    grain     agrl       0.000
                                        kill          11           1      0.000 null     corn     null       0.000
                                        skip           0           0      0.000 null     null     null       0.000
                                        till           4          15      0.000 null mldboard     null       0.000
                                        plnt           5          20      0.000 null     oats     null       0.000
                                        harv          11           1      0.000 null    grain     agrl       0.000
                                        kill          11           1      0.000 null     oats     null       0.000
                                        skip           0           0      0.000 null     null     null       0.000
      c-o-p-p-p      23           0
                                        till           5           1      0.000 null mldboard     null       0.000
                                        fert           5          10      0.000 null man_dairy    null       0.000
                                        plnt           5          20      0.000 null     corn     null       0.000
                                        harv          11           1      0.000 null    grain     agrl       0.000
                                        kill          11           1      0.000 null     corn     null       0.000
                                        skip           0           0      0.000 null     null     null       0.000
                                        till           4          15      0.000 null mldboard     null       0.000
                                        plnt           5          20      0.000 null     oats     null       0.000
                                        harv          11           1      0.000 null    grain     agrl       0.000
                                        kill          11           1      0.000 null     oats     null       0.000
                                        skip           0           0      0.000 null     null     null       0.000
                                        till           4           1      0.000 null mldboard     null       0.000
                                        plnt           4          10      0.000 null     wpas     null       0.000
                                        harv           6          15      0.000 null hay_cut_high agrl       0.000
                                        harv           8          15      0.000 null hay_cut_high agrl       0.000
                                        skip           0           0      0.000 null     null     null       0.000
                                        harv           6          15      0.000 null hay_cut_high agrl       0.000
                                        harv           8          15      0.000 null hay_cut_high agrl       0.000
                                        skip           0           0      0.000 null     null     null       0.000
                                        harv           6          15      0.000 null hay_cut_high agrl       0.000
                                        harv           8          15      0.000 null hay_cut_high agrl       0.000
                                        kill          11           1      0.000 null     wpas     null       0.000
                                        skip           0           0      0.000 null     null     null       0.000
      o-p-p-p-c      23           0
                                        till           4          15      0.000 null mldboard     null       0.000
                                        plnt           5          20      0.000 null     oats     null       0.000
                                        harv          11           1      0.000 null    grain     agrl       0.000
                                        kill          11           1      0.000 null     oats     null       0.000
                                        skip           0           0      0.000 null     null     null       0.000
                                        till           4           1      0.000 null mldboard     null       0.000
                                        plnt           4          10      0.000 null     wpas     null       0.000
                                        harv           6          15      0.000 null hay_cut_high agrl       0.000
                                        harv           8          15      0.000 null hay_cut_high agrl       0.000
                                        skip           0           0      0.000 null     null     null       0.000
                                        harv           6          15      0.000 null hay_cut_high agrl       0.000
                                        harv           8          15      0.000 null hay_cut_high agrl       0.000
                                        skip           0           0      0.000 null     null     null       0.000
                                        harv           6          15      0.000 null hay_cut_high agrl       0.000
                                        harv           8          15      0.000 null hay_cut_high agrl       0.000
                                        kill          11           1      0.000 null     wpas     null       0.000
                                        skip           0           0      0.000 null     null     null       0.000
                                        till           5           1      0.000 null mldboard     null       0.000
                                        fert           5          10      0.000 null man_dairy    null       0.000
                                        plnt           5          20      0.000 null     corn     null       0.000
                                        harv          11           1      0.000 null    grain     agrl       0.000
                                        kill          11           1      0.000 null     corn     null       0.000
                                        skip           0           0      0.000 null     null     null       0.000
      p-p-p-c-o      23           0
                                        till           4           1      0.000 null mldboard     null       0.000
                                        plnt           4          10      0.000 null     wpas     null       0.000
                                        harv           6          15      0.000 null hay_cut_high agrl       0.000
                                        harv           8          15      0.000 null hay_cut_high agrl       0.000
                                        skip           0           0      0.000 null     null     null       0.000
                                        harv           6          15      0.000 null hay_cut_high agrl       0.000
                                        harv           8          15      0.000 null hay_cut_high agrl       0.000
                                        skip           0           0      0.000 null     null     null       0.000
                                        harv           6          15      0.000 null hay_cut_high agrl       0.000
                                        harv           8          15      0.000 null hay_cut_high agrl       0.000
                                        kill          11           1      0.000 null     wpas     null       0.000
                                        skip           0           0      0.000 null     null     null       0.000
                                        till           5           1      0.000 null mldboard     null       0.000
                                        fert           5          10      0.000 null man_dairy    null       0.000
                                        plnt           5          20      0.000 null     corn     null       0.000
                                        harv          11           1      0.000 null    grain     agrl       0.000
                                        kill          11           1      0.000 null     corn     null       0.000
                                        skip           0           0      0.000 null     null     null       0.000
                                        till           4          15      0.000 null mldboard     null       0.000
                                        plnt           5          20      0.000 null     oats     null       0.000
                                        harv          11           1      0.000 null    grain     agrl       0.000
                                        kill          11           1      0.000 null     oats     null       0.000
                                        skip           0           0      0.000 null     null     null       0.000
