initial.res: Reservoir data file - asdf;lj
      NUMB         NAME       VOL       SED      ORGN       NO3       NO2       NH3      ORGP      SOLP      SECI       SAN       SIL       CLA       SAG       LAG       GRA      CHLA  PST_MASS SPST_MASS    BACTLP     BACTP
         1 reservoir001      0.90    200.00     10.00      2.00      0.20      0.10      1.00      0.10      1.00      0.00      1.00      9.00      0.00      0.00      0.00      0.10      0.01      0.00      0.00      0.00
