weir.res: Reservoir weir inputs - LREW4
   WEIR_NUMB   WEIR_NAME  NUM_STEPS    DCHG_CO     ENG_CO    WEIR_WD     VEL_CO      DP_CO
           1    shape001     24.000      1.000  15000.000      2.000      1.750      1.000
