sediment.res: Reservoir sediment inputs - LREW Subbasin March 2016
  RES_SED_NUMB  RES_SED_NAME    SED_AMT    RES_D50    SED_STL    STL_VEL
             1  res_sed_1a      100.000     20.000     10.000      2.000
             2  res_sed_2a      100.000     20.000     10.000      2.000