weir.res: Reservoir weir inputs - LREW Subbasin March 2016
   WEIR_NUMB     WEIR_NAME  NUM_STEPS    DCHG_CO     ENG_CO    WEIR_WD     VEL_CO      DP_CO
           1   res_weir_1a     24.000      1.000  15000.000      2.000      1.750      1.000
           2   res_weir_2a     24.000      1.000  15000.000      2.000      1.750      1.000