sediment.res: Reservoir sediment inputs - LREW_HRU-lte
  RES_SED_NUMB  RES_SED_NAME    SED_AMT    RES_D50    SED_STL    STL_VEL
             1  reservoir001    100.000     20.000     10.000      2.000
